{
  "project_info": {
    "project_number": "832657167452",
    "firebase_url": "https://cashbro-6d083-default-rtdb.firebaseio.com",
    "project_id": "cashbro-6d083",
    "storage_bucket": "cashbro-6d083.appspot.com"
  },
  "client": [
    {
      "client_info": {
        "mobilesdk_app_id": "1:832657167452:android:2ea77ffc5c0d57e5518299",
        "android_client_info": {
          "package_name": "com.cashbro"
        }
      },
      "oauth_client": [
        {
          "client_id": "832657167452-efb7qut8od6ul6ov6pi6rfd5oonak6rf.apps.googleusercontent.com",
          "client_type": 3
        }
      ],
      "api_key": [
        {
          "current_key": "AIzaSyC9TPoynBkxyvVxXd44_6Zergq1yo0zHoI"
        }
      ],
      "services": {
        "appinvite_service": {
          "other_platform_oauth_client": [
            {
              "client_id": "832657167452-efb7qut8od6ul6ov6pi6rfd5oonak6rf.apps.googleusercontent.com",
              "client_type": 3
            }
          ]
        }
      }
    },
    {
      "client_info": {
        "mobilesdk_app_id": "1:832657167452:android:c4abd10a1fd8cca0518299",
        "android_client_info": {
          "package_name": "com.example.testapp"
        }
      },
      "oauth_client": [
        {
          "client_id": "832657167452-efb7qut8od6ul6ov6pi6rfd5oonak6rf.apps.googleusercontent.com",
          "client_type": 3
        }
      ],
      "api_key": [
        {
          "current_key": "AIzaSyC9TPoynBkxyvVxXd44_6Zergq1yo0zHoI"
        }
      ],
      "services": {
        "appinvite_service": {
          "other_platform_oauth_client": [
            {
              "client_id": "832657167452-efb7qut8od6ul6ov6pi6rfd5oonak6rf.apps.googleusercontent.com",
              "client_type": 3
            }
          ]
        }
      }
    }
  ],
  "configuration_version": "1"
}